<?xml version='1.0'?>
<ns2:test-suite xmlns:ns2='urn:model.allure.qatools.yandex.ru' start='1610213678445' stop='1610213683971'>
    <name>testsuit for adminPromoCode Controller</name>
    <title>testsuit for adminPromoCode Controller</title>
    <test-cases>
        <test-case start='1610213678445' status='passed' stop='1610213680262'>
            <name>Create Promocode</name>
            <title>Create Promocode</title>
            <labels/>
            <parameters/>
            <steps/>
            <attachments/>
        </test-case>
        <test-case start='1610213680262' status='passed' stop='1610213682215'>
            <name>Get Promocode</name>
            <title>Get Promocode</title>
            <labels/>
            <parameters/>
            <steps/>
            <attachments/>
        </test-case>
        <test-case start='1610213682215' status='passed' stop='1610213683971'>
            <name>PUT Promocode</name>
            <title>PUT Promocode</title>
            <labels/>
            <parameters/>
            <steps/>
            <attachments/>
        </test-case>
    </test-cases>
</ns2:test-suite>