<?xml version='1.0'?>
<ns2:test-suite xmlns:ns2='urn:model.allure.qatools.yandex.ru' start='1612620196715' stop='1612620196717'>
    <name>testsuit for clientCountries Controller</name>
    <title>testsuit for clientCountries Controller</title>
    <test-cases>
        <test-case start='1612620196716' status='undefined' stop='1612620196716'>
            <name>Authorization for admin</name>
            <title>Authorization for admin</title>
            <labels/>
            <parameters/>
            <steps/>
            <attachments/>
            <failure>
                <message>This test was disabled</message>
                <stack-trace>undefined</stack-trace>
            </failure>
        </test-case>
        <test-case start='1612620196717' status='undefined' stop='1612620196717'>
            <name>Get all countries</name>
            <title>Get all countries</title>
            <labels/>
            <parameters/>
            <steps/>
            <attachments/>
            <failure>
                <message>This test was disabled</message>
                <stack-trace>undefined</stack-trace>
            </failure>
        </test-case>
        <test-case start='1612620196717' status='undefined' stop='1612620196717'>
            <name>Search cities by default country or by all countries</name>
            <title>Search cities by default country or by all countries</title>
            <labels/>
            <parameters/>
            <steps/>
            <attachments/>
            <failure>
                <message>This test was disabled</message>
                <stack-trace>undefined</stack-trace>
            </failure>
        </test-case>
        <test-case start='1612620196717' status='undefined' stop='1612620196717'>
            <name>Search cities by country</name>
            <title>Search cities by country</title>
            <labels/>
            <parameters/>
            <steps/>
            <attachments/>
            <failure>
                <message>This test was disabled</message>
                <stack-trace>undefined</stack-trace>
            </failure>
        </test-case>
    </test-cases>
</ns2:test-suite>