<?xml version='1.0'?>
<ns2:test-suite xmlns:ns2='urn:model.allure.qatools.yandex.ru' start='1612627180761' stop='1612627180761'>
    <name>testsuit for winningHistories Controller</name>
    <title>testsuit for winningHistories Controller</title>
    <test-cases>
        <test-case start='1612627180761' status='undefined' stop='1612627180761'>
            <name>page reviews</name>
            <title>page reviews</title>
            <labels/>
            <parameters/>
            <steps/>
            <attachments/>
            <failure>
                <message>This test was disabled</message>
                <stack-trace>undefined</stack-trace>
            </failure>
        </test-case>
        <test-case start='1612627180761' status='undefined' stop='1612627180761'>
            <name>Search winning histories</name>
            <title>Search winning histories</title>
            <labels/>
            <parameters/>
            <steps/>
            <attachments/>
            <failure>
                <message>This test was disabled</message>
                <stack-trace>undefined</stack-trace>
            </failure>
        </test-case>
        <test-case start='1612627180761' status='undefined' stop='1612627180761'>
            <name>Get winning history</name>
            <title>Get winning history</title>
            <labels/>
            <parameters/>
            <steps/>
            <attachments/>
            <failure>
                <message>This test was disabled</message>
                <stack-trace>undefined</stack-trace>
            </failure>
        </test-case>
    </test-cases>
</ns2:test-suite>