<?xml version='1.0'?>
<ns2:test-suite xmlns:ns2='urn:model.allure.qatools.yandex.ru' start='1612625915750' stop='1612625915750'>
    <name>testsuit for clientWithdrawls Controller</name>
    <title>testsuit for clientWithdrawls Controller</title>
    <test-cases>
        <test-case start='1612625915750' status='undefined' stop='1612625915750'>
            <name>get user limits to withdrawal</name>
            <title>get user limits to withdrawal</title>
            <labels/>
            <parameters/>
            <steps/>
            <attachments/>
            <failure>
                <message>This test was disabled</message>
                <stack-trace>undefined</stack-trace>
            </failure>
        </test-case>
        <test-case start='1612625915750' status='undefined' stop='1612625915750'>
            <name>get all withdrawal providers</name>
            <title>get all withdrawal providers</title>
            <labels/>
            <parameters/>
            <steps/>
            <attachments/>
            <failure>
                <message>This test was disabled</message>
                <stack-trace>undefined</stack-trace>
            </failure>
        </test-case>
    </test-cases>
</ns2:test-suite>