<?xml version='1.0'?>
<ns2:test-suite xmlns:ns2='urn:model.allure.qatools.yandex.ru' start='1610211225092' stop='1610211229087'>
    <name>testsuit for clientLevel Controller</name>
    <title>testsuit for clientLevel Controller</title>
    <test-cases>
        <test-case start='1610211225093' status='passed' stop='1610211226956'>
            <name>Get user levels</name>
            <title>Get user levels</title>
            <labels/>
            <parameters/>
            <steps>
                <step start='1610211225093' status='passed' stop='1610211226009'>
                    <name>Вызываем /v1/client/login</name>
                    <title>Вызываем /v1/client/login</title>
                    <attachments/>
                    <steps/>
                </step>
                <step start='1610211226010' status='passed' stop='1610211226955'>
                    <name>Вызываем /v1/client/levels</name>
                    <title>Вызываем /v1/client/levels</title>
                    <attachments/>
                    <steps/>
                </step>
            </steps>
            <attachments/>
        </test-case>
        <test-case start='1610211226956' status='passed' stop='1610211229086'>
            <name>Get user scales</name>
            <title>Get user scales</title>
            <labels/>
            <parameters/>
            <steps>
                <step start='1610211226956' status='passed' stop='1610211228057'>
                    <name>Вызываем /v1/client/login</name>
                    <title>Вызываем /v1/client/login</title>
                    <attachments/>
                    <steps/>
                </step>
                <step start='1610211228057' status='passed' stop='1610211229086'>
                    <name>Вызываем /v1/client/levels/scales</name>
                    <title>Вызываем /v1/client/levels/scales</title>
                    <attachments/>
                    <steps/>
                </step>
            </steps>
            <attachments/>
        </test-case>
    </test-cases>
</ns2:test-suite>