<?xml version='1.0'?>
<ns2:test-suite xmlns:ns2='urn:model.allure.qatools.yandex.ru' start='1611055976552' stop='1611055986031'>
    <name>testsuit for clientCountries Controller</name>
    <title>testsuit for clientCountries Controller</title>
    <test-cases>
        <test-case start='1611055976552' status='passed' stop='1611055977562'>
            <name>Authorization for admin</name>
            <title>Authorization for admin</title>
            <labels>
                <label name='epic' value='clientCountries'/>
                <label name='feature' value='Feature.Authorization'/>
                <label name='story' value='Story: blabla'/>
            </labels>
            <parameters/>
            <steps>
                <step start='1611055976553' status='passed' stop='1611055976553'>
                    <name>Авторзиация админа</name>
                    <title>Авторзиация админа</title>
                    <attachments/>
                    <steps/>
                </step>
                <step start='1611055976553' status='passed' stop='1611055977557'>
                    <name>Вызываем post /v1/client/login</name>
                    <title>Вызываем post /v1/client/login</title>
                    <attachments/>
                    <steps/>
                </step>
            </steps>
            <attachments/>
            <description type='text'>Authorization for admin</description>
        </test-case>
        <test-case start='1611055977562' status='passed' stop='1611055979532'>
            <name>Get all countries</name>
            <title>Get all countries</title>
            <labels/>
            <parameters/>
            <steps>
                <step start='1611055977562' status='passed' stop='1611055978592'>
                    <name>Вызываем post /v1/client/login</name>
                    <title>Вызываем post /v1/client/login</title>
                    <attachments/>
                    <steps/>
                </step>
                <step start='1611055978596' status='passed' stop='1611055979532'>
                    <name>Вызываем GET /v1/client/countries</name>
                    <title>Вызываем GET /v1/client/countries</title>
                    <attachments/>
                    <steps/>
                </step>
            </steps>
            <attachments/>
        </test-case>
        <test-case start='1611055979532' status='passed' stop='1611055984123'>
            <name>Search cities by default country or by all countries</name>
            <title>Search cities by default country or by all countries</title>
            <labels/>
            <parameters/>
            <steps>
                <step start='1611055979533' status='passed' stop='1611055980531'>
                    <name>Вызываем post /v1/client/login</name>
                    <title>Вызываем post /v1/client/login</title>
                    <attachments/>
                    <steps/>
                </step>
                <step start='1611055980538' status='passed' stop='1611055984122'>
                    <name>Вызываем POST /v1/client/countries/cities/search</name>
                    <title>Вызываем POST /v1/client/countries/cities/search</title>
                    <attachments/>
                    <steps/>
                </step>
            </steps>
            <attachments/>
        </test-case>
        <test-case start='1611055984123' status='passed' stop='1611055986031'>
            <name>Search cities by country</name>
            <title>Search cities by country</title>
            <labels/>
            <parameters/>
            <steps>
                <step start='1611055984123' status='passed' stop='1611055985034'>
                    <name>Вызываем post /v1/client/login</name>
                    <title>Вызываем post /v1/client/login</title>
                    <attachments/>
                    <steps/>
                </step>
                <step start='1611055985046' status='passed' stop='1611055986030'>
                    <name>Вызываем POST /v1/client/countries/ ' + countryId + '/cities/search</name>
                    <title>Вызываем POST /v1/client/countries/ ' + countryId + '/cities/search</title>
                    <attachments/>
                    <steps/>
                </step>
            </steps>
            <attachments/>
        </test-case>
    </test-cases>
</ns2:test-suite>