<?xml version='1.0'?>
<ns2:test-suite xmlns:ns2='urn:model.allure.qatools.yandex.ru' start='1612630033183' stop='1612630033184'>
    <name>testsuit for adminPromoCode Controller</name>
    <title>testsuit for adminPromoCode Controller</title>
    <test-cases>
        <test-case start='1612630033183' status='undefined' stop='1612630033184'>
            <name>Create Promocode type=GIFT</name>
            <title>Create Promocode type=GIFT</title>
            <labels/>
            <parameters/>
            <steps/>
            <attachments/>
            <failure>
                <message>This test was disabled</message>
                <stack-trace>undefined</stack-trace>
            </failure>
        </test-case>
        <test-case start='1612630033184' status='undefined' stop='1612630033184'>
            <name>Create Promocode type=PERCENT_FOR_PRODUCT</name>
            <title>Create Promocode type=PERCENT_FOR_PRODUCT</title>
            <labels/>
            <parameters/>
            <steps/>
            <attachments/>
            <failure>
                <message>This test was disabled</message>
                <stack-trace>undefined</stack-trace>
            </failure>
        </test-case>
        <test-case start='1612630033184' status='undefined' stop='1612630033184'>
            <name>Get Promocode</name>
            <title>Get Promocode</title>
            <labels/>
            <parameters/>
            <steps/>
            <attachments/>
            <failure>
                <message>This test was disabled</message>
                <stack-trace>undefined</stack-trace>
            </failure>
        </test-case>
        <test-case start='1612630033184' status='undefined' stop='1612630033184'>
            <name>PUT Promocode</name>
            <title>PUT Promocode</title>
            <labels/>
            <parameters/>
            <steps/>
            <attachments/>
            <failure>
                <message>This test was disabled</message>
                <stack-trace>undefined</stack-trace>
            </failure>
        </test-case>
    </test-cases>
</ns2:test-suite>