<?xml version='1.0'?>
<ns2:test-suite xmlns:ns2='urn:model.allure.qatools.yandex.ru' start='1611056034512' stop='1611056040340'>
    <name>testsuit for winningHistories Controller</name>
    <title>testsuit for winningHistories Controller</title>
    <test-cases>
        <test-case start='1611056034512' status='passed' stop='1611056036576'>
            <name>page reviews</name>
            <title>page reviews</title>
            <labels/>
            <parameters/>
            <steps>
                <step start='1611056034513' status='passed' stop='1611056035432'>
                    <name>Вызываем post /v1/client/login</name>
                    <title>Вызываем post /v1/client/login</title>
                    <attachments/>
                    <steps/>
                </step>
                <step start='1611056035433' status='passed' stop='1611056036576'>
                    <name>Вызываем POST /v1/winning-histories/reviews/page</name>
                    <title>Вызываем POST /v1/winning-histories/reviews/page</title>
                    <attachments/>
                    <steps/>
                </step>
            </steps>
            <attachments/>
        </test-case>
        <test-case start='1611056036576' status='passed' stop='1611056038476'>
            <name>Search winning histories</name>
            <title>Search winning histories</title>
            <labels/>
            <parameters/>
            <steps>
                <step start='1611056036577' status='passed' stop='1611056037487'>
                    <name>Вызываем post /v1/client/login</name>
                    <title>Вызываем post /v1/client/login</title>
                    <attachments/>
                    <steps/>
                </step>
                <step start='1611056037488' status='passed' stop='1611056038476'>
                    <name>Вызываем POST /v1/winning-histories/search</name>
                    <title>Вызываем POST /v1/winning-histories/search</title>
                    <attachments/>
                    <steps/>
                </step>
            </steps>
            <attachments/>
        </test-case>
        <test-case start='1611056038476' status='passed' stop='1611056040340'>
            <name>Get winning history</name>
            <title>Get winning history</title>
            <labels/>
            <parameters/>
            <steps>
                <step start='1611056038477' status='passed' stop='1611056039436'>
                    <name>Вызываем post /v1/client/login</name>
                    <title>Вызываем post /v1/client/login</title>
                    <attachments/>
                    <steps/>
                </step>
                <step start='1611056039436' status='passed' stop='1611056040337'>
                    <name>Вызываем GET /v1/winning-histories/' + `${historyId}`</name>
                    <title>Вызываем GET /v1/winning-histories/' + `${historyId}`</title>
                    <attachments/>
                    <steps/>
                </step>
            </steps>
            <attachments/>
        </test-case>
    </test-cases>
</ns2:test-suite>