<?xml version='1.0'?>
<ns2:test-suite xmlns:ns2='urn:model.allure.qatools.yandex.ru' start='1610655905372' stop='1610655906509'>
    <name>testsuit for clientCountries Controller</name>
    <title>testsuit for clientCountries Controller</title>
    <test-cases>
        <test-case start='1610655905372' status='passed' stop='1610655906508'>
            <name>Authorization for admin</name>
            <title>Authorization for admin</title>
            <labels>
                <label name='epic' value='clientCountries'/>
                <label name='feature' value='Feature.Authorization'/>
                <label name='story' value='Story: blabla'/>
            </labels>
            <parameters/>
            <steps>
                <step start='1610655905373' status='passed' stop='1610655905373'>
                    <name>Авторзиация админа</name>
                    <title>Авторзиация админа</title>
                    <attachments/>
                    <steps/>
                </step>
            </steps>
            <attachments/>
            <description type='text'>Authorization for admin</description>
        </test-case>
        <test-case start='1610655906508' status='undefined' stop='1610655906509'>
            <name>Get all countries</name>
            <title>Get all countries</title>
            <labels/>
            <parameters/>
            <steps/>
            <attachments/>
            <failure>
                <message>This test was disabled</message>
                <stack-trace>undefined</stack-trace>
            </failure>
        </test-case>
        <test-case start='1610655906509' status='undefined' stop='1610655906509'>
            <name>Search cities by default country or by all countries</name>
            <title>Search cities by default country or by all countries</title>
            <labels/>
            <parameters/>
            <steps/>
            <attachments/>
            <failure>
                <message>This test was disabled</message>
                <stack-trace>undefined</stack-trace>
            </failure>
        </test-case>
        <test-case start='1610655906509' status='undefined' stop='1610655906509'>
            <name>Search cities by country</name>
            <title>Search cities by country</title>
            <labels/>
            <parameters/>
            <steps/>
            <attachments/>
            <failure>
                <message>This test was disabled</message>
                <stack-trace>undefined</stack-trace>
            </failure>
        </test-case>
    </test-cases>
</ns2:test-suite>