<?xml version='1.0'?>
<ns2:test-suite xmlns:ns2='urn:model.allure.qatools.yandex.ru' start='1610649902962' stop='1610649902962'>
    <name>testsuit for clientRefferals Controller</name>
    <title>testsuit for clientRefferals Controller</title>
    <test-cases>
        <test-case start='1610649902962' status='undefined' stop='1610649902962'>
            <name>Get refferals statistics </name>
            <title>Get refferals statistics </title>
            <labels/>
            <parameters/>
            <steps/>
            <attachments/>
            <failure>
                <message>This test was disabled</message>
                <stack-trace>undefined</stack-trace>
            </failure>
        </test-case>
        <test-case start='1610649902962' status='undefined' stop='1610649902962'>
            <name>Search refferals </name>
            <title>Search refferals </title>
            <labels/>
            <parameters/>
            <steps/>
            <attachments/>
            <failure>
                <message>This test was disabled</message>
                <stack-trace>undefined</stack-trace>
            </failure>
        </test-case>
    </test-cases>
</ns2:test-suite>