<?xml version='1.0'?>
<ns2:test-suite xmlns:ns2='urn:model.allure.qatools.yandex.ru' start='1612625335940' stop='1612625335940'>
    <name>testsuit for clientProfile Controller</name>
    <title>testsuit for clientProfile Controller</title>
    <test-cases>
        <test-case start='1612625335940' status='undefined' stop='1612625335940'>
            <name>Get profile</name>
            <title>Get profile</title>
            <labels/>
            <parameters/>
            <steps/>
            <attachments/>
            <failure>
                <message>This test was disabled</message>
                <stack-trace>undefined</stack-trace>
            </failure>
        </test-case>
        <test-case start='1612625335940' status='undefined' stop='1612625335940'>
            <name>Update profile</name>
            <title>Update profile</title>
            <labels/>
            <parameters/>
            <steps/>
            <attachments/>
            <failure>
                <message>This test was disabled</message>
                <stack-trace>undefined</stack-trace>
            </failure>
        </test-case>
        <test-case start='1612625335940' status='undefined' stop='1612625335940'>
            <name>Get update profile avatar</name>
            <title>Get update profile avatar</title>
            <labels/>
            <parameters/>
            <steps/>
            <attachments/>
            <failure>
                <message>This test was disabled</message>
                <stack-trace>undefined</stack-trace>
            </failure>
        </test-case>
        <test-case start='1612625335940' status='undefined' stop='1612625335940'>
            <name>Get profile summary</name>
            <title>Get profile summary</title>
            <labels/>
            <parameters/>
            <steps/>
            <attachments/>
            <failure>
                <message>This test was disabled</message>
                <stack-trace>undefined</stack-trace>
            </failure>
        </test-case>
    </test-cases>
</ns2:test-suite>