<?xml version='1.0'?>
<ns2:test-suite xmlns:ns2='urn:model.allure.qatools.yandex.ru' start='1612627758308' stop='1612627760199'>
    <name>testsuit for client buy ticket Controller</name>
    <title>testsuit for client buy ticket Controller</title>
    <test-cases>
        <test-case start='1612627758308' status='undefined' stop='1612627758308'>
            <name>buy ticket </name>
            <title>buy ticket </title>
            <labels/>
            <parameters/>
            <steps/>
            <attachments/>
            <failure>
                <message>This test was disabled</message>
                <stack-trace>undefined</stack-trace>
            </failure>
        </test-case>
        <test-case start='1612627758308' status='undefined' stop='1612627758308'>
            <name>buy ticket by wallet</name>
            <title>buy ticket by wallet</title>
            <labels/>
            <parameters/>
            <steps/>
            <attachments/>
            <failure>
                <message>This test was disabled</message>
                <stack-trace>undefined</stack-trace>
            </failure>
        </test-case>
        <test-case start='1612627758308' status='undefined' stop='1612627758308'>
            <name>count tickets </name>
            <title>count tickets </title>
            <labels/>
            <parameters/>
            <steps/>
            <attachments/>
            <failure>
                <message>This test was disabled</message>
                <stack-trace>undefined</stack-trace>
            </failure>
        </test-case>
        <test-case start='1612627758308' status='undefined' stop='1612627758310'>
            <name>get tickets multiplier </name>
            <title>get tickets multiplier </title>
            <labels/>
            <parameters/>
            <steps/>
            <attachments/>
            <failure>
                <message>This test was disabled</message>
                <stack-trace>undefined</stack-trace>
            </failure>
        </test-case>
        <test-case start='1612627758310' status='failed' stop='1612627760198'>
            <name>search tickets </name>
            <title>search tickets </title>
            <labels/>
            <parameters/>
            <steps>
                <step start='1612627758312' status='passed' stop='1612627759316'>
                    <name>Вызываем post /v1/client/login</name>
                    <title>Вызываем post /v1/client/login</title>
                    <attachments/>
                    <steps/>
                </step>
                <step start='1612627759323' status='passed' stop='1612627760190'>
                    <name>Вызываем POST /v1/client/tickets/search</name>
                    <title>Вызываем POST /v1/client/tickets/search</title>
                    <attachments/>
                    <steps/>
                </step>
            </steps>
            <attachments/>
            <failure>
                <message>Error: expect(received).toEqual(expected) // deep equality
                
                Expected: {"generate": [Function generate], "getAmountTicketForBuy": [Function getAmountTicketForBuy], "getLimitOfTickets": [Function getLimitOfTickets], "getOffsetOfTickets": [Function getOffsetOfTickets], "getPartlyOnlinePaymentSumInKopecks": [Function getPartlyOnlinePaymentSumInKopecks], "getPaymentMethod": [Function getPaymentMethod], "getPaymentMethodWallet": [Function getPaymentMethodWallet], "getRedirectUrl": [Function getRedirectUrl], "getSourcePayment": [Function getSourcePayment], "getWinningTickets": [Function getWinningTickets], "source": "GIFT"}
                Received: "PAYMENT"</message>
                <stack-trace>Error: expect(received).toEqual(expected) // deep equality
                
                Expected: {"generate": [Function generate], "getAmountTicketForBuy": [Function getAmountTicketForBuy], "getLimitOfTickets": [Function getLimitOfTickets], "getOffsetOfTickets": [Function getOffsetOfTickets], "getPartlyOnlinePaymentSumInKopecks": [Function getPartlyOnlinePaymentSumInKopecks], "getPaymentMethod": [Function getPaymentMethod], "getPaymentMethodWallet": [Function getPaymentMethodWallet], "getRedirectUrl": [Function getRedirectUrl], "getSourcePayment": [Function getSourcePayment], "getWinningTickets": [Function getWinningTickets], "source": "GIFT"}
                Received: "PAYMENT"
                    at Object.&lt;anonymous> (/Users/rufina/Desktop/matreshka/specs/matreshka.spec.js:626:42)
                    at processTicksAndRejections (internal/process/task_queues.js:93:5)</stack-trace>
            </failure>
        </test-case>
        <test-case start='1612627760198' status='undefined' stop='1612627760198'>
            <name>buy trial tickets by partly online</name>
            <title>buy trial tickets by partly online</title>
            <labels/>
            <parameters/>
            <steps/>
            <attachments/>
            <failure>
                <message>This test was disabled</message>
                <stack-trace>undefined</stack-trace>
            </failure>
        </test-case>
        <test-case start='1612627760198' status='undefined' stop='1612627760198'>
            <name>buy trial tickets by online</name>
            <title>buy trial tickets by online</title>
            <labels/>
            <parameters/>
            <steps/>
            <attachments/>
            <failure>
                <message>This test was disabled</message>
                <stack-trace>undefined</stack-trace>
            </failure>
        </test-case>
        <test-case start='1612627760198' status='undefined' stop='1612627760198'>
            <name>get ticket by id</name>
            <title>get ticket by id</title>
            <labels/>
            <parameters/>
            <steps/>
            <attachments/>
            <failure>
                <message>This test was disabled</message>
                <stack-trace>undefined</stack-trace>
            </failure>
        </test-case>
        <test-case start='1612627760198' status='undefined' stop='1612627760199'>
            <name>Search ticket winning history</name>
            <title>Search ticket winning history</title>
            <labels/>
            <parameters/>
            <steps/>
            <attachments/>
            <failure>
                <message>This test was disabled</message>
                <stack-trace>undefined</stack-trace>
            </failure>
        </test-case>
    </test-cases>
</ns2:test-suite>