<?xml version='1.0'?>
<ns2:test-suite xmlns:ns2='urn:model.allure.qatools.yandex.ru' start='1610654069166' stop='1610654069166'>
    <name>testsuit for clientLevel Controller</name>
    <title>testsuit for clientLevel Controller</title>
    <test-cases>
        <test-case start='1610654069166' status='undefined' stop='1610654069166'>
            <name>Get user levels</name>
            <title>Get user levels</title>
            <labels/>
            <parameters/>
            <steps/>
            <attachments/>
            <failure>
                <message>This test was disabled</message>
                <stack-trace>undefined</stack-trace>
            </failure>
        </test-case>
        <test-case start='1610654069166' status='undefined' stop='1610654069166'>
            <name>Get user scales</name>
            <title>Get user scales</title>
            <labels/>
            <parameters/>
            <steps/>
            <attachments/>
            <failure>
                <message>This test was disabled</message>
                <stack-trace>undefined</stack-trace>
            </failure>
        </test-case>
    </test-cases>
</ns2:test-suite>