<?xml version='1.0'?>
<ns2:test-suite xmlns:ns2='urn:model.allure.qatools.yandex.ru' start='1612627752951' stop='1612627752951'>
    <name>testsuit for Promo Controller</name>
    <title>testsuit for Promo Controller</title>
    <test-cases>
        <test-case start='1612627752951' status='undefined' stop='1612627752951'>
            <name>Page promo</name>
            <title>Page promo</title>
            <labels/>
            <parameters/>
            <steps/>
            <attachments/>
            <failure>
                <message>This test was disabled</message>
                <stack-trace>undefined</stack-trace>
            </failure>
        </test-case>
    </test-cases>
</ns2:test-suite>