<?xml version='1.0'?>
<ns2:test-suite xmlns:ns2='urn:model.allure.qatools.yandex.ru' start='1612619967595' stop='1612619969462'>
    <name>testsuit for adminPromoCode Controller</name>
    <title>testsuit for adminPromoCode Controller</title>
    <test-cases>
        <test-case start='1612619967595' status='undefined' stop='1612619967595'>
            <name>Create Promocode type=GIFT</name>
            <title>Create Promocode type=GIFT</title>
            <labels/>
            <parameters/>
            <steps/>
            <attachments/>
            <failure>
                <message>This test was disabled</message>
                <stack-trace>undefined</stack-trace>
            </failure>
        </test-case>
        <test-case start='1612619967595' status='undefined' stop='1612619967595'>
            <name>Create Promocode type=PERCENT_FOR_PRODUCT</name>
            <title>Create Promocode type=PERCENT_FOR_PRODUCT</title>
            <labels/>
            <parameters/>
            <steps/>
            <attachments/>
            <failure>
                <message>This test was disabled</message>
                <stack-trace>undefined</stack-trace>
            </failure>
        </test-case>
        <test-case start='1612619967595' status='passed' stop='1612619969462'>
            <name>Get Promocode</name>
            <title>Get Promocode</title>
            <labels/>
            <parameters/>
            <steps>
                <step start='1612619967597' status='passed' stop='1612619968600'>
                    <name>Вызываем post /v1/client/login</name>
                    <title>Вызываем post /v1/client/login</title>
                    <attachments/>
                    <steps/>
                </step>
                <step start='1612619968602' status='passed' stop='1612619969459'>
                    <name>Вызываем get /v1/admin/promo-codes/{promoCodeId}</name>
                    <title>Вызываем get /v1/admin/promo-codes/{promoCodeId}</title>
                    <attachments/>
                    <steps/>
                </step>
            </steps>
            <attachments/>
        </test-case>
        <test-case start='1612619969462' status='undefined' stop='1612619969462'>
            <name>PUT Promocode</name>
            <title>PUT Promocode</title>
            <labels/>
            <parameters/>
            <steps/>
            <attachments/>
            <failure>
                <message>This test was disabled</message>
                <stack-trace>undefined</stack-trace>
            </failure>
        </test-case>
    </test-cases>
</ns2:test-suite>