<?xml version='1.0'?>
<ns2:test-suite xmlns:ns2='urn:model.allure.qatools.yandex.ru' start='1612627133698' stop='1612627135575'>
    <name>testsuit for client buy ticket Controller</name>
    <title>testsuit for client buy ticket Controller</title>
    <test-cases>
        <test-case start='1612627133698' status='undefined' stop='1612627133698'>
            <name>buy ticket </name>
            <title>buy ticket </title>
            <labels/>
            <parameters/>
            <steps/>
            <attachments/>
            <failure>
                <message>This test was disabled</message>
                <stack-trace>undefined</stack-trace>
            </failure>
        </test-case>
        <test-case start='1612627133698' status='undefined' stop='1612627133698'>
            <name>buy ticket by wallet</name>
            <title>buy ticket by wallet</title>
            <labels/>
            <parameters/>
            <steps/>
            <attachments/>
            <failure>
                <message>This test was disabled</message>
                <stack-trace>undefined</stack-trace>
            </failure>
        </test-case>
        <test-case start='1612627133698' status='undefined' stop='1612627133699'>
            <name>count tickets </name>
            <title>count tickets </title>
            <labels/>
            <parameters/>
            <steps/>
            <attachments/>
            <failure>
                <message>This test was disabled</message>
                <stack-trace>undefined</stack-trace>
            </failure>
        </test-case>
        <test-case start='1612627133699' status='undefined' stop='1612627133699'>
            <name>get tickets multiplier </name>
            <title>get tickets multiplier </title>
            <labels/>
            <parameters/>
            <steps/>
            <attachments/>
            <failure>
                <message>This test was disabled</message>
                <stack-trace>undefined</stack-trace>
            </failure>
        </test-case>
        <test-case start='1612627133699' status='passed' stop='1612627135575'>
            <name>search tickets </name>
            <title>search tickets </title>
            <labels/>
            <parameters/>
            <steps>
                <step start='1612627133700' status='passed' stop='1612627134721'>
                    <name>Вызываем post /v1/client/login</name>
                    <title>Вызываем post /v1/client/login</title>
                    <attachments/>
                    <steps/>
                </step>
                <step start='1612627134730' status='passed' stop='1612627135574'>
                    <name>Вызываем POST /v1/client/tickets/search</name>
                    <title>Вызываем POST /v1/client/tickets/search</title>
                    <attachments/>
                    <steps/>
                </step>
            </steps>
            <attachments/>
        </test-case>
        <test-case start='1612627135575' status='undefined' stop='1612627135575'>
            <name>buy trial tickets by partly online</name>
            <title>buy trial tickets by partly online</title>
            <labels/>
            <parameters/>
            <steps/>
            <attachments/>
            <failure>
                <message>This test was disabled</message>
                <stack-trace>undefined</stack-trace>
            </failure>
        </test-case>
        <test-case start='1612627135575' status='undefined' stop='1612627135575'>
            <name>buy trial tickets by online</name>
            <title>buy trial tickets by online</title>
            <labels/>
            <parameters/>
            <steps/>
            <attachments/>
            <failure>
                <message>This test was disabled</message>
                <stack-trace>undefined</stack-trace>
            </failure>
        </test-case>
        <test-case start='1612627135575' status='undefined' stop='1612627135575'>
            <name>get ticket by id</name>
            <title>get ticket by id</title>
            <labels/>
            <parameters/>
            <steps/>
            <attachments/>
            <failure>
                <message>This test was disabled</message>
                <stack-trace>undefined</stack-trace>
            </failure>
        </test-case>
        <test-case start='1612627135575' status='undefined' stop='1612627135575'>
            <name>Search ticket winning history</name>
            <title>Search ticket winning history</title>
            <labels/>
            <parameters/>
            <steps/>
            <attachments/>
            <failure>
                <message>This test was disabled</message>
                <stack-trace>undefined</stack-trace>
            </failure>
        </test-case>
    </test-cases>
</ns2:test-suite>