<?xml version='1.0'?>
<ns2:test-suite xmlns:ns2='urn:model.allure.qatools.yandex.ru' start='1610213698496' stop='1610213702042'>
    <name>testsuit for clientRefferals Controller</name>
    <title>testsuit for clientRefferals Controller</title>
    <test-cases>
        <test-case start='1610213698496' status='passed' stop='1610213700252'>
            <name>Get refferals statistics </name>
            <title>Get refferals statistics </title>
            <labels/>
            <parameters/>
            <steps/>
            <attachments/>
        </test-case>
        <test-case start='1610213700252' status='passed' stop='1610213702042'>
            <name>Search refferals </name>
            <title>Search refferals </title>
            <labels/>
            <parameters/>
            <steps/>
            <attachments/>
        </test-case>
    </test-cases>
</ns2:test-suite>