<?xml version='1.0'?>
<ns2:test-suite xmlns:ns2='urn:model.allure.qatools.yandex.ru' start='1610213702046' stop='1610213716975'>
    <name>testsuit for client buy ticket Controller</name>
    <title>testsuit for client buy ticket Controller</title>
    <test-cases>
        <test-case start='1610213702046' status='passed' stop='1610213703862'>
            <name>buy ticket </name>
            <title>buy ticket </title>
            <labels/>
            <parameters/>
            <steps/>
            <attachments/>
        </test-case>
        <test-case start='1610213703862' status='passed' stop='1610213705617'>
            <name>count tickets </name>
            <title>count tickets </title>
            <labels/>
            <parameters/>
            <steps/>
            <attachments/>
        </test-case>
        <test-case start='1610213705617' status='passed' stop='1610213707402'>
            <name>get tickets multiplier </name>
            <title>get tickets multiplier </title>
            <labels/>
            <parameters/>
            <steps/>
            <attachments/>
        </test-case>
        <test-case start='1610213707402' status='passed' stop='1610213709244'>
            <name>search tickets </name>
            <title>search tickets </title>
            <labels/>
            <parameters/>
            <steps/>
            <attachments/>
        </test-case>
        <test-case start='1610213709244' status='passed' stop='1610213711179'>
            <name>buy trial tickets by partly online</name>
            <title>buy trial tickets by partly online</title>
            <labels/>
            <parameters/>
            <steps/>
            <attachments/>
        </test-case>
        <test-case start='1610213711180' status='passed' stop='1610213713075'>
            <name>buy trial tickets by online</name>
            <title>buy trial tickets by online</title>
            <labels/>
            <parameters/>
            <steps/>
            <attachments/>
        </test-case>
        <test-case start='1610213713075' status='passed' stop='1610213714845'>
            <name>get ticket by id</name>
            <title>get ticket by id</title>
            <labels/>
            <parameters/>
            <steps/>
            <attachments/>
        </test-case>
        <test-case start='1610213714845' status='passed' stop='1610213716975'>
            <name>Search ticket winning history</name>
            <title>Search ticket winning history</title>
            <labels/>
            <parameters/>
            <steps/>
            <attachments/>
        </test-case>
    </test-cases>
</ns2:test-suite>