<?xml version='1.0'?>
<ns2:test-suite xmlns:ns2='urn:model.allure.qatools.yandex.ru' start='1611055991502' stop='1611055995633'>
    <name>testsuit for clientLevel Controller</name>
    <title>testsuit for clientLevel Controller</title>
    <test-cases>
        <test-case start='1611055991502' status='passed' stop='1611055993371'>
            <name>Get user levels</name>
            <title>Get user levels</title>
            <labels/>
            <parameters/>
            <steps>
                <step start='1611055991502' status='passed' stop='1611055992515'>
                    <name>Вызываем post /v1/client/login</name>
                    <title>Вызываем post /v1/client/login</title>
                    <attachments/>
                    <steps/>
                </step>
                <step start='1611055992516' status='passed' stop='1611055993370'>
                    <name>Вызываем GET /v1/client/levels</name>
                    <title>Вызываем GET /v1/client/levels</title>
                    <attachments/>
                    <steps/>
                </step>
            </steps>
            <attachments/>
        </test-case>
        <test-case start='1611055993371' status='passed' stop='1611055995633'>
            <name>Get user scales</name>
            <title>Get user scales</title>
            <labels/>
            <parameters/>
            <steps>
                <step start='1611055993371' status='passed' stop='1611055994421'>
                    <name>Вызываем post /v1/client/login</name>
                    <title>Вызываем post /v1/client/login</title>
                    <attachments/>
                    <steps/>
                </step>
                <step start='1611055994421' status='passed' stop='1611055995633'>
                    <name>Вызываем GET /v1/client/levels/scales</name>
                    <title>Вызываем GET /v1/client/levels/scales</title>
                    <attachments/>
                    <steps/>
                </step>
            </steps>
            <attachments/>
        </test-case>
    </test-cases>
</ns2:test-suite>