<?xml version='1.0'?>
<ns2:test-suite xmlns:ns2='urn:model.allure.qatools.yandex.ru' start='1610211264125' stop='1610211266013'>
    <name>testsuit for clientWallets Controller</name>
    <title>testsuit for clientWallets Controller</title>
    <test-cases>
        <test-case start='1610211264126' status='passed' stop='1610211266013'>
            <name>get my wallet</name>
            <title>get my wallet</title>
            <labels/>
            <parameters/>
            <steps>
                <step start='1610211264126' status='passed' stop='1610211265132'>
                    <name>Вызываем /v1/client/login</name>
                    <title>Вызываем /v1/client/login</title>
                    <attachments/>
                    <steps/>
                </step>
                <step start='1610211265132' status='passed' stop='1610211266012'>
                    <name>Вызываем /v1/client/wallets</name>
                    <title>Вызываем /v1/client/wallets</title>
                    <attachments/>
                    <steps/>
                </step>
            </steps>
            <attachments/>
        </test-case>
    </test-cases>
</ns2:test-suite>