<?xml version='1.0'?>
<ns2:test-suite xmlns:ns2='urn:model.allure.qatools.yandex.ru' start='1612618727679' stop='1612618729543'>
    <name>testsuit for adminPromoCode Controller</name>
    <title>testsuit for adminPromoCode Controller</title>
    <test-cases>
        <test-case start='1612618727679' status='undefined' stop='1612618727680'>
            <name>Create Promocode type=GIFT</name>
            <title>Create Promocode type=GIFT</title>
            <labels/>
            <parameters/>
            <steps/>
            <attachments/>
            <failure>
                <message>This test was disabled</message>
                <stack-trace>undefined</stack-trace>
            </failure>
        </test-case>
        <test-case start='1612618727680' status='failed' stop='1612618729543'>
            <name>Create Promocode type=PERCENT_FOR_PRODUCT</name>
            <title>Create Promocode type=PERCENT_FOR_PRODUCT</title>
            <labels/>
            <parameters/>
            <steps>
                <step start='1612618727680' status='passed' stop='1612618728636'>
                    <name>Вызываем post /v1/client/login</name>
                    <title>Вызываем post /v1/client/login</title>
                    <attachments/>
                    <steps/>
                </step>
                <step start='1612618728646' status='passed' stop='1612618729539'>
                    <name>Вызываем post /v1/admin/promo-codes</name>
                    <title>Вызываем post /v1/admin/promo-codes</title>
                    <attachments/>
                    <steps/>
                </step>
            </steps>
            <attachments/>
            <failure>
                <message>TypeError: Cannot read property 'discountType' of undefined</message>
                <stack-trace>TypeError: Cannot read property 'discountType' of undefined
                    at Object.&lt;anonymous> (/Users/rufina/Desktop/matreshka/specs/matreshka.spec.js:174:26)
                    at processTicksAndRejections (internal/process/task_queues.js:93:5)</stack-trace>
            </failure>
        </test-case>
        <test-case start='1612618729543' status='undefined' stop='1612618729543'>
            <name>Get Promocode</name>
            <title>Get Promocode</title>
            <labels/>
            <parameters/>
            <steps/>
            <attachments/>
            <failure>
                <message>This test was disabled</message>
                <stack-trace>undefined</stack-trace>
            </failure>
        </test-case>
        <test-case start='1612618729543' status='undefined' stop='1612618729543'>
            <name>PUT Promocode</name>
            <title>PUT Promocode</title>
            <labels/>
            <parameters/>
            <steps/>
            <attachments/>
            <failure>
                <message>This test was disabled</message>
                <stack-trace>undefined</stack-trace>
            </failure>
        </test-case>
    </test-cases>
</ns2:test-suite>