<?xml version='1.0'?>
<ns2:test-suite xmlns:ns2='urn:model.allure.qatools.yandex.ru' start='1610899053368' stop='1610899053369'>
    <name>testsuit for clientWallets Controller</name>
    <title>testsuit for clientWallets Controller</title>
    <test-cases>
        <test-case start='1610899053369' status='undefined' stop='1610899053369'>
            <name>get my wallet</name>
            <title>get my wallet</title>
            <labels/>
            <parameters/>
            <steps/>
            <attachments/>
            <failure>
                <message>This test was disabled</message>
                <stack-trace>undefined</stack-trace>
            </failure>
        </test-case>
    </test-cases>
</ns2:test-suite>