{
  "reportName" : "Allure Report",
  "testRuns" : [ ],
  "statistic" : {
    "failed" : 0,
    "broken" : 0,
    "skipped" : 0,
    "passed" : 4,
    "unknown" : 28,
    "total" : 32
  },
  "time" : {
    "start" : 1610213796827,
    "stop" : 1610213803306,
    "duration" : 6479,
    "minDuration" : 0,
    "maxDuration" : 1979,
    "sumDuration" : 6453
  }
}