launch_status failed=0 1610283979000000000
launch_status broken=0 1610283979000000000
launch_status passed=4 1610283979000000000
launch_status skipped=0 1610283979000000000
launch_status unknown=28 1610283979000000000
launch_time duration=6479 1610283979000000000
launch_time min_duration=0 1610283979000000000
launch_time max_duration=1979 1610283979000000000
launch_time sum_duration=6453 1610283979000000000
launch_retries retries=64 1610283979000000000
launch_retries run=32 1610283979000000000
