{
  "1296dafcc4dc69d6efdbd1beba6b1bf4" : {
    "statistic" : {
      "failed" : 0,
      "broken" : 0,
      "skipped" : 0,
      "passed" : 1,
      "unknown" : 0,
      "total" : 1
    },
    "items" : [ {
      "uid" : "3577dd103d6875e",
      "status" : "passed",
      "time" : {
        "start" : 1610213799549,
        "stop" : 1610213801528,
        "duration" : 1979
      }
    } ]
  },
  "fc47bebe75305e8300ac2c0eb992e4c9" : {
    "statistic" : {
      "failed" : 0,
      "broken" : 0,
      "skipped" : 0,
      "passed" : 0,
      "unknown" : 1,
      "total" : 1
    },
    "items" : [ {
      "uid" : "840da48201b7fa54",
      "status" : "unknown",
      "statusDetails" : "This test was disabled",
      "time" : {
        "start" : 1610213803298,
        "stop" : 1610213803298,
        "duration" : 0
      }
    } ]
  },
  "be4ae9bb22640eba17e21cdbd0a4c0e0" : {
    "statistic" : {
      "failed" : 0,
      "broken" : 0,
      "skipped" : 0,
      "passed" : 0,
      "unknown" : 1,
      "total" : 1
    },
    "items" : [ {
      "uid" : "51f1a4dc793a5192",
      "status" : "unknown",
      "statusDetails" : "This test was disabled",
      "time" : {
        "start" : 1610213803295,
        "stop" : 1610213803296,
        "duration" : 1
      }
    } ]
  },
  "98be32037e492a2e74049294e32e4900" : {
    "statistic" : {
      "failed" : 0,
      "broken" : 0,
      "skipped" : 0,
      "passed" : 1,
      "unknown" : 0,
      "total" : 1
    },
    "items" : [ {
      "uid" : "2c005a3b5b909672",
      "status" : "passed",
      "time" : {
        "start" : 1610213796827,
        "stop" : 1610213797784,
        "duration" : 957
      }
    } ]
  },
  "45843cbe45555b8fda806e0afc93210e" : {
    "statistic" : {
      "failed" : 0,
      "broken" : 0,
      "skipped" : 0,
      "passed" : 0,
      "unknown" : 1,
      "total" : 1
    },
    "items" : [ {
      "uid" : "6d29d73ca71ca60d",
      "status" : "unknown",
      "statusDetails" : "This test was disabled",
      "time" : {
        "start" : 1610213803304,
        "stop" : 1610213803304,
        "duration" : 0
      }
    } ]
  },
  "4d5bfbe480e2fe8deead94e73669d676" : {
    "statistic" : {
      "failed" : 0,
      "broken" : 0,
      "skipped" : 0,
      "passed" : 0,
      "unknown" : 1,
      "total" : 1
    },
    "items" : [ {
      "uid" : "c62957d2bd36bf0a",
      "status" : "unknown",
      "statusDetails" : "This test was disabled",
      "time" : {
        "start" : 1610213803292,
        "stop" : 1610213803292,
        "duration" : 0
      }
    } ]
  },
  "1a8216fa27ce9d77617c5a1d0dd2fe14" : {
    "statistic" : {
      "failed" : 0,
      "broken" : 0,
      "skipped" : 0,
      "passed" : 0,
      "unknown" : 1,
      "total" : 1
    },
    "items" : [ {
      "uid" : "7e2e51caac97f927",
      "status" : "unknown",
      "statusDetails" : "This test was disabled",
      "time" : {
        "start" : 1610213803294,
        "stop" : 1610213803294,
        "duration" : 0
      }
    } ]
  },
  "f732a30946b5755aba2ebdeea4ba65dd" : {
    "statistic" : {
      "failed" : 0,
      "broken" : 0,
      "skipped" : 0,
      "passed" : 0,
      "unknown" : 1,
      "total" : 1
    },
    "items" : [ {
      "uid" : "3512cf2b66f52a27",
      "status" : "unknown",
      "statusDetails" : "This test was disabled",
      "time" : {
        "start" : 1610213803306,
        "stop" : 1610213803306,
        "duration" : 0
      }
    } ]
  },
  "4cfb7bd5f1dc7c2b16c188af7d3084c4" : {
    "statistic" : {
      "failed" : 0,
      "broken" : 0,
      "skipped" : 0,
      "passed" : 1,
      "unknown" : 0,
      "total" : 1
    },
    "items" : [ {
      "uid" : "5549cda0456a24ef",
      "status" : "passed",
      "time" : {
        "start" : 1610213797785,
        "stop" : 1610213799549,
        "duration" : 1764
      }
    } ]
  },
  "5b9fc8ea31124d3690e57df0554bc2c9" : {
    "statistic" : {
      "failed" : 0,
      "broken" : 0,
      "skipped" : 0,
      "passed" : 0,
      "unknown" : 1,
      "total" : 1
    },
    "items" : [ {
      "uid" : "5070b13bdb8bd256",
      "status" : "unknown",
      "statusDetails" : "This test was disabled",
      "time" : {
        "start" : 1610213803299,
        "stop" : 1610213803299,
        "duration" : 0
      }
    } ]
  },
  "6b002fcd7c89ecd1f216523204383a10" : {
    "statistic" : {
      "failed" : 0,
      "broken" : 0,
      "skipped" : 0,
      "passed" : 0,
      "unknown" : 1,
      "total" : 1
    },
    "items" : [ {
      "uid" : "6d18b67476c4a2d",
      "status" : "unknown",
      "statusDetails" : "This test was disabled",
      "time" : {
        "start" : 1610213803299,
        "stop" : 1610213803299,
        "duration" : 0
      }
    } ]
  },
  "1a815222ea2ee507fe916dd1779127e3" : {
    "statistic" : {
      "failed" : 0,
      "broken" : 0,
      "skipped" : 0,
      "passed" : 0,
      "unknown" : 1,
      "total" : 1
    },
    "items" : [ {
      "uid" : "8ac535a0deb21127",
      "status" : "unknown",
      "statusDetails" : "This test was disabled",
      "time" : {
        "start" : 1610213803296,
        "stop" : 1610213803296,
        "duration" : 0
      }
    } ]
  },
  "f3c1b98067bcbb26119f4b9f9bb3953" : {
    "statistic" : {
      "failed" : 0,
      "broken" : 0,
      "skipped" : 0,
      "passed" : 0,
      "unknown" : 1,
      "total" : 1
    },
    "items" : [ {
      "uid" : "54b2c0b8315f54f1",
      "status" : "unknown",
      "statusDetails" : "This test was disabled",
      "time" : {
        "start" : 1610213803305,
        "stop" : 1610213803305,
        "duration" : 0
      }
    } ]
  },
  "2c7682b6d8d3bb63f176119dfca1a1a8" : {
    "statistic" : {
      "failed" : 0,
      "broken" : 0,
      "skipped" : 0,
      "passed" : 0,
      "unknown" : 1,
      "total" : 1
    },
    "items" : [ {
      "uid" : "4c1e1fa59889c482",
      "status" : "unknown",
      "statusDetails" : "This test was disabled",
      "time" : {
        "start" : 1610213803297,
        "stop" : 1610213803298,
        "duration" : 1
      }
    } ]
  },
  "f06b0656fb59f70f7910c8d260ddf30e" : {
    "statistic" : {
      "failed" : 0,
      "broken" : 0,
      "skipped" : 0,
      "passed" : 0,
      "unknown" : 1,
      "total" : 1
    },
    "items" : [ {
      "uid" : "a26cc182ee02ff8b",
      "status" : "unknown",
      "statusDetails" : "This test was disabled",
      "time" : {
        "start" : 1610213803298,
        "stop" : 1610213803298,
        "duration" : 0
      }
    } ]
  },
  "c2f1f7c8ca0d1dce0f84c4e3a95e0ede" : {
    "statistic" : {
      "failed" : 0,
      "broken" : 0,
      "skipped" : 0,
      "passed" : 0,
      "unknown" : 1,
      "total" : 1
    },
    "items" : [ {
      "uid" : "f95b28a6cdb5833d",
      "status" : "unknown",
      "statusDetails" : "This test was disabled",
      "time" : {
        "start" : 1610213803299,
        "stop" : 1610213803299,
        "duration" : 0
      }
    } ]
  },
  "3b232538ec3f5a94aa0d5a883db407ec" : {
    "statistic" : {
      "failed" : 0,
      "broken" : 0,
      "skipped" : 0,
      "passed" : 0,
      "unknown" : 1,
      "total" : 1
    },
    "items" : [ {
      "uid" : "10548a3eef635e46",
      "status" : "unknown",
      "statusDetails" : "This test was disabled",
      "time" : {
        "start" : 1610213803296,
        "stop" : 1610213803296,
        "duration" : 0
      }
    } ]
  },
  "9436e63410a7bc17d2ca209330918577" : {
    "statistic" : {
      "failed" : 0,
      "broken" : 0,
      "skipped" : 0,
      "passed" : 0,
      "unknown" : 1,
      "total" : 1
    },
    "items" : [ {
      "uid" : "e3273020940e10e1",
      "status" : "unknown",
      "statusDetails" : "This test was disabled",
      "time" : {
        "start" : 1610213803304,
        "stop" : 1610213803304,
        "duration" : 0
      }
    } ]
  },
  "13abceadd2fae383fb3162407ef02ad4" : {
    "statistic" : {
      "failed" : 0,
      "broken" : 0,
      "skipped" : 0,
      "passed" : 0,
      "unknown" : 1,
      "total" : 1
    },
    "items" : [ {
      "uid" : "a15352cfd059876d",
      "status" : "unknown",
      "statusDetails" : "This test was disabled",
      "time" : {
        "start" : 1610213803306,
        "stop" : 1610213803306,
        "duration" : 0
      }
    } ]
  },
  "d2b205232aebcc4c05df4c5555c4a3b8" : {
    "statistic" : {
      "failed" : 0,
      "broken" : 0,
      "skipped" : 0,
      "passed" : 0,
      "unknown" : 1,
      "total" : 1
    },
    "items" : [ {
      "uid" : "599e2a58927e6ace",
      "status" : "unknown",
      "statusDetails" : "This test was disabled",
      "time" : {
        "start" : 1610213803302,
        "stop" : 1610213803302,
        "duration" : 0
      }
    } ]
  },
  "ff63ebf164b806e3ad722eb17238ca86" : {
    "statistic" : {
      "failed" : 0,
      "broken" : 0,
      "skipped" : 0,
      "passed" : 0,
      "unknown" : 1,
      "total" : 1
    },
    "items" : [ {
      "uid" : "405f41093e439a4f",
      "status" : "unknown",
      "statusDetails" : "This test was disabled",
      "time" : {
        "start" : 1610213803299,
        "stop" : 1610213803299,
        "duration" : 0
      }
    } ]
  },
  "375bbe8105cc26879a10859c42cce4b8" : {
    "statistic" : {
      "failed" : 0,
      "broken" : 0,
      "skipped" : 0,
      "passed" : 0,
      "unknown" : 1,
      "total" : 1
    },
    "items" : [ {
      "uid" : "fe3db40b327f79a8",
      "status" : "unknown",
      "statusDetails" : "This test was disabled",
      "time" : {
        "start" : 1610213803299,
        "stop" : 1610213803299,
        "duration" : 0
      }
    } ]
  },
  "b7cf179ee164f2f2c426efbe2f8e0ece" : {
    "statistic" : {
      "failed" : 0,
      "broken" : 0,
      "skipped" : 0,
      "passed" : 0,
      "unknown" : 1,
      "total" : 1
    },
    "items" : [ {
      "uid" : "a484fe9e307c9cb4",
      "status" : "unknown",
      "statusDetails" : "This test was disabled",
      "time" : {
        "start" : 1610213803299,
        "stop" : 1610213803299,
        "duration" : 0
      }
    } ]
  },
  "77d18333fe6d8b8f26a247b1cb5e1b0a" : {
    "statistic" : {
      "failed" : 0,
      "broken" : 0,
      "skipped" : 0,
      "passed" : 0,
      "unknown" : 1,
      "total" : 1
    },
    "items" : [ {
      "uid" : "b31b36ef9085bb99",
      "status" : "unknown",
      "statusDetails" : "This test was disabled",
      "time" : {
        "start" : 1610213803298,
        "stop" : 1610213803298,
        "duration" : 0
      }
    } ]
  },
  "9ae12433f292c1a0b4e8e82ab346630b" : {
    "statistic" : {
      "failed" : 0,
      "broken" : 0,
      "skipped" : 0,
      "passed" : 0,
      "unknown" : 1,
      "total" : 1
    },
    "items" : [ {
      "uid" : "6095ef6db2fc5c61",
      "status" : "unknown",
      "statusDetails" : "This test was disabled",
      "time" : {
        "start" : 1610213803294,
        "stop" : 1610213803294,
        "duration" : 0
      }
    } ]
  },
  "3889fe8dc858940da66b2b33c821cb0a" : {
    "statistic" : {
      "failed" : 0,
      "broken" : 0,
      "skipped" : 0,
      "passed" : 0,
      "unknown" : 1,
      "total" : 1
    },
    "items" : [ {
      "uid" : "fdfe0cf28abec52f",
      "status" : "unknown",
      "statusDetails" : "This test was disabled",
      "time" : {
        "start" : 1610213803299,
        "stop" : 1610213803299,
        "duration" : 0
      }
    } ]
  },
  "e190f42ce52a510aa9e8d6e262c95bf4" : {
    "statistic" : {
      "failed" : 0,
      "broken" : 0,
      "skipped" : 0,
      "passed" : 0,
      "unknown" : 1,
      "total" : 1
    },
    "items" : [ {
      "uid" : "abeb28c67a591cbe",
      "status" : "unknown",
      "statusDetails" : "This test was disabled",
      "time" : {
        "start" : 1610213803292,
        "stop" : 1610213803292,
        "duration" : 0
      }
    } ]
  },
  "911fc681f7f9c6973528cd4f6a4d4c35" : {
    "statistic" : {
      "failed" : 0,
      "broken" : 0,
      "skipped" : 0,
      "passed" : 0,
      "unknown" : 1,
      "total" : 1
    },
    "items" : [ {
      "uid" : "fe594015d900c615",
      "status" : "unknown",
      "statusDetails" : "This test was disabled",
      "time" : {
        "start" : 1610213803306,
        "stop" : 1610213803306,
        "duration" : 0
      }
    } ]
  },
  "fd7994917f90f39415dfa2e3d4d3f4cb" : {
    "statistic" : {
      "failed" : 0,
      "broken" : 0,
      "skipped" : 0,
      "passed" : 1,
      "unknown" : 0,
      "total" : 1
    },
    "items" : [ {
      "uid" : "c6d447a9b38e524d",
      "status" : "passed",
      "time" : {
        "start" : 1610213801528,
        "stop" : 1610213803279,
        "duration" : 1751
      }
    } ]
  },
  "50a095069b9ed63ed720b80dbd8d36f7" : {
    "statistic" : {
      "failed" : 0,
      "broken" : 0,
      "skipped" : 0,
      "passed" : 0,
      "unknown" : 1,
      "total" : 1
    },
    "items" : [ {
      "uid" : "fa47d40c10ea43fc",
      "status" : "unknown",
      "statusDetails" : "This test was disabled",
      "time" : {
        "start" : 1610213803299,
        "stop" : 1610213803299,
        "duration" : 0
      }
    } ]
  },
  "883017c0e94ffa1c42a19b3aa922a5fe" : {
    "statistic" : {
      "failed" : 0,
      "broken" : 0,
      "skipped" : 0,
      "passed" : 0,
      "unknown" : 1,
      "total" : 1
    },
    "items" : [ {
      "uid" : "52371360c16334eb",
      "status" : "unknown",
      "statusDetails" : "This test was disabled",
      "time" : {
        "start" : 1610213803292,
        "stop" : 1610213803292,
        "duration" : 0
      }
    } ]
  },
  "30ea0239e2b1344d903d9ba265c813c5" : {
    "statistic" : {
      "failed" : 0,
      "broken" : 0,
      "skipped" : 0,
      "passed" : 0,
      "unknown" : 1,
      "total" : 1
    },
    "items" : [ {
      "uid" : "1ee70297ad8dd4cf",
      "status" : "unknown",
      "statusDetails" : "This test was disabled",
      "time" : {
        "start" : 1610213803296,
        "stop" : 1610213803296,
        "duration" : 0
      }
    } ]
  }
}